%YAML 1.1
%TAG !u! tag:unity3d.com,2011:
--- !u!78 &1
TagManager:
  serializedVersion: 2
  tags:
  - Fire
  - AmmoBox
  - ZombieSpawner
  - Weapon
  - Zombie
  - Bullet
  - Granate
  - Bomb
  - Instakill
  - projectile
  - FxTemporaire
  - Interactable
  - RandomWeaponBox
  - Drink
  - Upgrade
  - BuyWeapon
  - BuyGranade
  - Berrier
  - Barrier
  layers:
  - Default
  - TransparentFX
  - Ignore Raycast
  - 
  - Water
  - UI
  - 
  - 
  - 
  - 
  - 
  - 
  - 
  - 
  - 
  - 
  - 
  - 
  - 
  - 
  - 
  - 
  - 
  - 
  - 
  - 
  - 
  - 
  - 
  - 
  - 
  - 
  m_SortingLayers:
  - name: Default
    uniqueID: 0
    locked: 0
  - name: Foreground
    uniqueID: 2140489085
    locked: 0
